Meta-analysis: Relationship between procedural learning and language and literacy
…
Desc <- Data %>% group_by(Study, Group) %>% summarise(N = mean(N), Age = round(mean(Age),2), Authors = Authors[1], Year = Year[1], SRT = Seq_type[1], sequence = Seq_complexity[1])

## `summarise()` has grouped output by 'Study'. You can override using the
## `.groups` argument.

# Add number of participants and age to Earle & Ullman (2021)

Desc$N[13] <- 79 
Desc$N[12] <- 21
Desc$Age[13] <- 20.49
Desc$Age[12] <- 20.52

Desc

## # A tibble: 64 x 8
## # Groups:   Study [39]
##    Study                    Group     N   Age Authors        Year  SRT   seque~1
##    <chr>                    <chr> <dbl> <dbl> <chr>          <chr> <chr> <chr>  
##  1 Clark & Lum (2017b)      DLD      25  9.81 "Clark & Lum " 2017b dete~ FOC    
##  2 Clark & Lum (2017b)      TD       27  9.7  "Clark & Lum " 2017b dete~ FOC    
##  3 Clark and Lum (2017a)    DLD      20  8.92 "Clark and Lu~ 2017a dete~ FOC    
##  4 Clark and Lum (2017a)    TD       20  9.09 "Clark and Lu~ 2017a dete~ FOC    
##  5 Deroost et al. (2010)    DD       28 13.5  "Deroost et a~ 2010  dete~ FOC    
##  6 Desmottes et al. (2016a) DLD      18 10.2  "Desmottes et~ 2016a dete~ FOC    
##  7 Desmottes et al. (2016a) TD       17 10.1  "Desmottes et~ 2016a dete~ FOC    
##  8 Desmottes et al. (2016b) DLD      21 10.2  "Desmottes et~ 2016b dete~ FOC    
##  9 Desmottes et al. (2016b) TD       21 10.5  "Desmottes et~ 2016b dete~ FOC    
## 10 Desmottes et al. (2017)  DLD      15 10.4  "Desmottes et~ 2017  dete~ FOC    
## # ... with 54 more rows, and abbreviated variable name 1: sequence
…
